
(module GCT_USB4125-GF-A_REVA2 (layer F.Cu) (tedit 614F4245)
  (descr "")
  (fp_text reference REF** (at -0.125 -5.135 0) (layer F.SilkS)
    (effects (font (size 1.0 1.0) (thickness 0.15)))
  )
  (fp_text value GCT_USB4125-GF-A_REVA2 (at 10.67 4.435 0) (layer F.Fab)
    (effects (font (size 1.0 1.0) (thickness 0.15)))
  )
  (pad B12 smd rect (at -2.75 -3.08) (size 0.8 1.2) (layers F.Cu F.Mask F.Paste))
  (pad A12 smd rect (at 2.75 -3.08) (size 0.8 1.2) (layers F.Cu F.Mask F.Paste))
  (pad B9 smd rect (at -1.52 -3.08) (size 0.76 1.2) (layers F.Cu F.Mask F.Paste))
  (pad A9 smd rect (at 1.52 -3.08) (size 0.76 1.2) (layers F.Cu F.Mask F.Paste))
  (pad A5 smd rect (at -0.5 -3.08) (size 0.7 1.2) (layers F.Cu F.Mask F.Paste))
  (pad B5 smd rect (at 0.5 -3.08) (size 0.7 1.2) (layers F.Cu F.Mask F.Paste))
  (pad S1 thru_hole oval (at -4.32 -3.0) (size 0.8 1.6) (drill oval 0.6 1.2) (layers *.Cu))
  (pad S2 thru_hole oval (at 4.32 -3.0) (size 0.8 1.6) (drill oval 0.6 1.2) (layers *.Cu))
  (pad S3 thru_hole oval (at -4.32 0.8) (size 0.8 1.6) (drill oval 0.6 1.2) (layers *.Cu))
  (pad S4 thru_hole oval (at 4.32 0.8) (size 0.8 1.6) (drill oval 0.6 1.2) (layers *.Cu))
  (fp_line (start -4.47 -3.4) (end 4.47 -3.4) (layer F.Fab) (width 0.1))
  (fp_line (start 4.47 -3.4) (end 4.47 3.4) (layer F.Fab) (width 0.1))
  (fp_line (start 4.47 3.4) (end -4.47 3.4) (layer F.Fab) (width 0.1))
  (fp_line (start -4.47 3.4) (end -4.47 -3.4) (layer F.Fab) (width 0.1))
  (fp_line (start -4.47 2.25) (end -4.47 3.4) (layer F.SilkS) (width 0.2))
  (fp_line (start -4.47 3.4) (end 4.47 3.4) (layer F.SilkS) (width 0.2))
  (fp_line (start 4.47 3.4) (end 4.47 2.25) (layer F.SilkS) (width 0.2))
  (fp_line (start -5.15 -4.35) (end 5.15 -4.35) (layer F.CrtYd) (width 0.05))
  (fp_line (start 5.15 -4.35) (end 5.15 3.65) (layer F.CrtYd) (width 0.05))
  (fp_line (start 5.15 3.65) (end -5.15 3.65) (layer F.CrtYd) (width 0.05))
  (fp_line (start -5.15 3.65) (end -5.15 -4.35) (layer F.CrtYd) (width 0.05))
  (fp_poly
    (pts
      (xy -4.32 -0.05)
      (xy -4.349 -0.049)
      (xy -4.377 -0.047)
      (xy -4.406 -0.043)
      (xy -4.434 -0.038)
      (xy -4.462 -0.031)
      (xy -4.49 -0.023)
      (xy -4.517 -0.013)
      (xy -4.544 -0.002)
      (xy -4.57 0.01)
      (xy -4.595 0.024)
      (xy -4.62 0.039)
      (xy -4.643 0.055)
      (xy -4.666 0.073)
      (xy -4.688 0.091)
      (xy -4.709 0.111)
      (xy -4.729 0.132)
      (xy -4.747 0.154)
      (xy -4.765 0.177)
      (xy -4.781 0.2)
      (xy -4.796 0.225)
      (xy -4.81 0.25)
      (xy -4.822 0.276)
      (xy -4.833 0.303)
      (xy -4.843 0.33)
      (xy -4.851 0.358)
      (xy -4.858 0.386)
      (xy -4.863 0.414)
      (xy -4.867 0.443)
      (xy -4.869 0.471)
      (xy -4.87 0.5)
      (xy -4.87 1.1)
      (xy -4.869 1.129)
      (xy -4.867 1.157)
      (xy -4.863 1.186)
      (xy -4.858 1.214)
      (xy -4.851 1.242)
      (xy -4.843 1.27)
      (xy -4.833 1.297)
      (xy -4.822 1.324)
      (xy -4.81 1.35)
      (xy -4.796 1.375)
      (xy -4.781 1.4)
      (xy -4.765 1.423)
      (xy -4.747 1.446)
      (xy -4.729 1.468)
      (xy -4.709 1.489)
      (xy -4.688 1.509)
      (xy -4.666 1.527)
      (xy -4.643 1.545)
      (xy -4.62 1.561)
      (xy -4.595 1.576)
      (xy -4.57 1.59)
      (xy -4.544 1.602)
      (xy -4.517 1.613)
      (xy -4.49 1.623)
      (xy -4.462 1.631)
      (xy -4.434 1.638)
      (xy -4.406 1.643)
      (xy -4.377 1.647)
      (xy -4.349 1.649)
      (xy -4.32 1.65)
      (xy -4.291 1.649)
      (xy -4.263 1.647)
      (xy -4.234 1.643)
      (xy -4.206 1.638)
      (xy -4.178 1.631)
      (xy -4.15 1.623)
      (xy -4.123 1.613)
      (xy -4.096 1.602)
      (xy -4.07 1.59)
      (xy -4.045 1.576)
      (xy -4.02 1.561)
      (xy -3.997 1.545)
      (xy -3.974 1.527)
      (xy -3.952 1.509)
      (xy -3.931 1.489)
      (xy -3.911 1.468)
      (xy -3.893 1.446)
      (xy -3.875 1.423)
      (xy -3.859 1.4)
      (xy -3.844 1.375)
      (xy -3.83 1.35)
      (xy -3.818 1.324)
      (xy -3.807 1.297)
      (xy -3.797 1.27)
      (xy -3.789 1.242)
      (xy -3.782 1.214)
      (xy -3.777 1.186)
      (xy -3.773 1.157)
      (xy -3.771 1.129)
      (xy -3.77 1.1)
      (xy -3.77 0.5)
      (xy -3.771 0.471)
      (xy -3.773 0.443)
      (xy -3.777 0.414)
      (xy -3.782 0.386)
      (xy -3.789 0.358)
      (xy -3.797 0.33)
      (xy -3.807 0.303)
      (xy -3.818 0.276)
      (xy -3.83 0.25)
      (xy -3.844 0.225)
      (xy -3.859 0.2)
      (xy -3.875 0.177)
      (xy -3.893 0.154)
      (xy -3.911 0.132)
      (xy -3.931 0.111)
      (xy -3.952 0.091)
      (xy -3.974 0.073)
      (xy -3.997 0.055)
      (xy -4.02 0.039)
      (xy -4.045 0.024)
      (xy -4.07 0.01)
      (xy -4.096 -0.002)
      (xy -4.123 -0.013)
      (xy -4.15 -0.023)
      (xy -4.178 -0.031)
      (xy -4.206 -0.038)
      (xy -4.234 -0.043)
      (xy -4.263 -0.047)
      (xy -4.291 -0.049)
      (xy -4.32 -0.05)
    ) (layer B.Cu) (width 0.01)
  )
  (fp_poly
    (pts
      (xy -4.32 -0.05)
      (xy -4.349 -0.049)
      (xy -4.377 -0.047)
      (xy -4.406 -0.043)
      (xy -4.434 -0.038)
      (xy -4.462 -0.031)
      (xy -4.49 -0.023)
      (xy -4.517 -0.013)
      (xy -4.544 -0.002)
      (xy -4.57 0.01)
      (xy -4.595 0.024)
      (xy -4.62 0.039)
      (xy -4.643 0.055)
      (xy -4.666 0.073)
      (xy -4.688 0.091)
      (xy -4.709 0.111)
      (xy -4.729 0.132)
      (xy -4.747 0.154)
      (xy -4.765 0.177)
      (xy -4.781 0.2)
      (xy -4.796 0.225)
      (xy -4.81 0.25)
      (xy -4.822 0.276)
      (xy -4.833 0.303)
      (xy -4.843 0.33)
      (xy -4.851 0.358)
      (xy -4.858 0.386)
      (xy -4.863 0.414)
      (xy -4.867 0.443)
      (xy -4.869 0.471)
      (xy -4.87 0.5)
      (xy -4.87 1.1)
      (xy -4.869 1.129)
      (xy -4.867 1.157)
      (xy -4.863 1.186)
      (xy -4.858 1.214)
      (xy -4.851 1.242)
      (xy -4.843 1.27)
      (xy -4.833 1.297)
      (xy -4.822 1.324)
      (xy -4.81 1.35)
      (xy -4.796 1.375)
      (xy -4.781 1.4)
      (xy -4.765 1.423)
      (xy -4.747 1.446)
      (xy -4.729 1.468)
      (xy -4.709 1.489)
      (xy -4.688 1.509)
      (xy -4.666 1.527)
      (xy -4.643 1.545)
      (xy -4.62 1.561)
      (xy -4.595 1.576)
      (xy -4.57 1.59)
      (xy -4.544 1.602)
      (xy -4.517 1.613)
      (xy -4.49 1.623)
      (xy -4.462 1.631)
      (xy -4.434 1.638)
      (xy -4.406 1.643)
      (xy -4.377 1.647)
      (xy -4.349 1.649)
      (xy -4.32 1.65)
      (xy -4.291 1.649)
      (xy -4.263 1.647)
      (xy -4.234 1.643)
      (xy -4.206 1.638)
      (xy -4.178 1.631)
      (xy -4.15 1.623)
      (xy -4.123 1.613)
      (xy -4.096 1.602)
      (xy -4.07 1.59)
      (xy -4.045 1.576)
      (xy -4.02 1.561)
      (xy -3.997 1.545)
      (xy -3.974 1.527)
      (xy -3.952 1.509)
      (xy -3.931 1.489)
      (xy -3.911 1.468)
      (xy -3.893 1.446)
      (xy -3.875 1.423)
      (xy -3.859 1.4)
      (xy -3.844 1.375)
      (xy -3.83 1.35)
      (xy -3.818 1.324)
      (xy -3.807 1.297)
      (xy -3.797 1.27)
      (xy -3.789 1.242)
      (xy -3.782 1.214)
      (xy -3.777 1.186)
      (xy -3.773 1.157)
      (xy -3.771 1.129)
      (xy -3.77 1.1)
      (xy -3.77 0.5)
      (xy -3.771 0.471)
      (xy -3.773 0.443)
      (xy -3.777 0.414)
      (xy -3.782 0.386)
      (xy -3.789 0.358)
      (xy -3.797 0.33)
      (xy -3.807 0.303)
      (xy -3.818 0.276)
      (xy -3.83 0.25)
      (xy -3.844 0.225)
      (xy -3.859 0.2)
      (xy -3.875 0.177)
      (xy -3.893 0.154)
      (xy -3.911 0.132)
      (xy -3.931 0.111)
      (xy -3.952 0.091)
      (xy -3.974 0.073)
      (xy -3.997 0.055)
      (xy -4.02 0.039)
      (xy -4.045 0.024)
      (xy -4.07 0.01)
      (xy -4.096 -0.002)
      (xy -4.123 -0.013)
      (xy -4.15 -0.023)
      (xy -4.178 -0.031)
      (xy -4.206 -0.038)
      (xy -4.234 -0.043)
      (xy -4.263 -0.047)
      (xy -4.291 -0.049)
      (xy -4.32 -0.05)
    ) (layer F.Cu) (width 0.01)
  )
  (fp_poly
    (pts
      (xy -4.32 -0.15)
      (xy -4.354 -0.149)
      (xy -4.388 -0.146)
      (xy -4.422 -0.142)
      (xy -4.455 -0.136)
      (xy -4.488 -0.128)
      (xy -4.521 -0.118)
      (xy -4.553 -0.107)
      (xy -4.584 -0.094)
      (xy -4.615 -0.079)
      (xy -4.645 -0.063)
      (xy -4.674 -0.045)
      (xy -4.702 -0.026)
      (xy -4.729 -0.005)
      (xy -4.755 0.017)
      (xy -4.78 0.04)
      (xy -4.803 0.065)
      (xy -4.825 0.091)
      (xy -4.846 0.118)
      (xy -4.865 0.146)
      (xy -4.883 0.175)
      (xy -4.899 0.205)
      (xy -4.914 0.236)
      (xy -4.927 0.267)
      (xy -4.938 0.299)
      (xy -4.948 0.332)
      (xy -4.956 0.365)
      (xy -4.962 0.398)
      (xy -4.966 0.432)
      (xy -4.969 0.466)
      (xy -4.97 0.5)
      (xy -4.97 1.1)
      (xy -4.969 1.134)
      (xy -4.966 1.168)
      (xy -4.962 1.202)
      (xy -4.956 1.235)
      (xy -4.948 1.268)
      (xy -4.938 1.301)
      (xy -4.927 1.333)
      (xy -4.914 1.364)
      (xy -4.899 1.395)
      (xy -4.883 1.425)
      (xy -4.865 1.454)
      (xy -4.846 1.482)
      (xy -4.825 1.509)
      (xy -4.803 1.535)
      (xy -4.78 1.56)
      (xy -4.755 1.583)
      (xy -4.729 1.605)
      (xy -4.702 1.626)
      (xy -4.674 1.645)
      (xy -4.645 1.663)
      (xy -4.615 1.679)
      (xy -4.584 1.694)
      (xy -4.553 1.707)
      (xy -4.521 1.718)
      (xy -4.488 1.728)
      (xy -4.455 1.736)
      (xy -4.422 1.742)
      (xy -4.388 1.746)
      (xy -4.354 1.749)
      (xy -4.32 1.75)
      (xy -4.286 1.749)
      (xy -4.252 1.746)
      (xy -4.218 1.742)
      (xy -4.185 1.736)
      (xy -4.152 1.728)
      (xy -4.119 1.718)
      (xy -4.087 1.707)
      (xy -4.056 1.694)
      (xy -4.025 1.679)
      (xy -3.995 1.663)
      (xy -3.966 1.645)
      (xy -3.938 1.626)
      (xy -3.911 1.605)
      (xy -3.885 1.583)
      (xy -3.86 1.56)
      (xy -3.837 1.535)
      (xy -3.815 1.509)
      (xy -3.794 1.482)
      (xy -3.775 1.454)
      (xy -3.757 1.425)
      (xy -3.741 1.395)
      (xy -3.726 1.364)
      (xy -3.713 1.333)
      (xy -3.702 1.301)
      (xy -3.692 1.268)
      (xy -3.684 1.235)
      (xy -3.678 1.202)
      (xy -3.674 1.168)
      (xy -3.671 1.134)
      (xy -3.67 1.1)
      (xy -3.67 0.5)
      (xy -3.671 0.466)
      (xy -3.674 0.432)
      (xy -3.678 0.398)
      (xy -3.684 0.365)
      (xy -3.692 0.332)
      (xy -3.702 0.299)
      (xy -3.713 0.267)
      (xy -3.726 0.236)
      (xy -3.741 0.205)
      (xy -3.757 0.175)
      (xy -3.775 0.146)
      (xy -3.794 0.118)
      (xy -3.815 0.091)
      (xy -3.837 0.065)
      (xy -3.86 0.04)
      (xy -3.885 0.017)
      (xy -3.911 -0.005)
      (xy -3.938 -0.026)
      (xy -3.966 -0.045)
      (xy -3.995 -0.063)
      (xy -4.025 -0.079)
      (xy -4.056 -0.094)
      (xy -4.087 -0.107)
      (xy -4.119 -0.118)
      (xy -4.152 -0.128)
      (xy -4.185 -0.136)
      (xy -4.218 -0.142)
      (xy -4.252 -0.146)
      (xy -4.286 -0.149)
      (xy -4.32 -0.15)
    ) (layer B.Mask) (width 0.01)
  )
  (fp_poly
    (pts
      (xy -4.32 -0.15)
      (xy -4.354 -0.149)
      (xy -4.388 -0.146)
      (xy -4.422 -0.142)
      (xy -4.455 -0.136)
      (xy -4.488 -0.128)
      (xy -4.521 -0.118)
      (xy -4.553 -0.107)
      (xy -4.584 -0.094)
      (xy -4.615 -0.079)
      (xy -4.645 -0.063)
      (xy -4.674 -0.045)
      (xy -4.702 -0.026)
      (xy -4.729 -0.005)
      (xy -4.755 0.017)
      (xy -4.78 0.04)
      (xy -4.803 0.065)
      (xy -4.825 0.091)
      (xy -4.846 0.118)
      (xy -4.865 0.146)
      (xy -4.883 0.175)
      (xy -4.899 0.205)
      (xy -4.914 0.236)
      (xy -4.927 0.267)
      (xy -4.938 0.299)
      (xy -4.948 0.332)
      (xy -4.956 0.365)
      (xy -4.962 0.398)
      (xy -4.966 0.432)
      (xy -4.969 0.466)
      (xy -4.97 0.5)
      (xy -4.97 1.1)
      (xy -4.969 1.134)
      (xy -4.966 1.168)
      (xy -4.962 1.202)
      (xy -4.956 1.235)
      (xy -4.948 1.268)
      (xy -4.938 1.301)
      (xy -4.927 1.333)
      (xy -4.914 1.364)
      (xy -4.899 1.395)
      (xy -4.883 1.425)
      (xy -4.865 1.454)
      (xy -4.846 1.482)
      (xy -4.825 1.509)
      (xy -4.803 1.535)
      (xy -4.78 1.56)
      (xy -4.755 1.583)
      (xy -4.729 1.605)
      (xy -4.702 1.626)
      (xy -4.674 1.645)
      (xy -4.645 1.663)
      (xy -4.615 1.679)
      (xy -4.584 1.694)
      (xy -4.553 1.707)
      (xy -4.521 1.718)
      (xy -4.488 1.728)
      (xy -4.455 1.736)
      (xy -4.422 1.742)
      (xy -4.388 1.746)
      (xy -4.354 1.749)
      (xy -4.32 1.75)
      (xy -4.286 1.749)
      (xy -4.252 1.746)
      (xy -4.218 1.742)
      (xy -4.185 1.736)
      (xy -4.152 1.728)
      (xy -4.119 1.718)
      (xy -4.087 1.707)
      (xy -4.056 1.694)
      (xy -4.025 1.679)
      (xy -3.995 1.663)
      (xy -3.966 1.645)
      (xy -3.938 1.626)
      (xy -3.911 1.605)
      (xy -3.885 1.583)
      (xy -3.86 1.56)
      (xy -3.837 1.535)
      (xy -3.815 1.509)
      (xy -3.794 1.482)
      (xy -3.775 1.454)
      (xy -3.757 1.425)
      (xy -3.741 1.395)
      (xy -3.726 1.364)
      (xy -3.713 1.333)
      (xy -3.702 1.301)
      (xy -3.692 1.268)
      (xy -3.684 1.235)
      (xy -3.678 1.202)
      (xy -3.674 1.168)
      (xy -3.671 1.134)
      (xy -3.67 1.1)
      (xy -3.67 0.5)
      (xy -3.671 0.466)
      (xy -3.674 0.432)
      (xy -3.678 0.398)
      (xy -3.684 0.365)
      (xy -3.692 0.332)
      (xy -3.702 0.299)
      (xy -3.713 0.267)
      (xy -3.726 0.236)
      (xy -3.741 0.205)
      (xy -3.757 0.175)
      (xy -3.775 0.146)
      (xy -3.794 0.118)
      (xy -3.815 0.091)
      (xy -3.837 0.065)
      (xy -3.86 0.04)
      (xy -3.885 0.017)
      (xy -3.911 -0.005)
      (xy -3.938 -0.026)
      (xy -3.966 -0.045)
      (xy -3.995 -0.063)
      (xy -4.025 -0.079)
      (xy -4.056 -0.094)
      (xy -4.087 -0.107)
      (xy -4.119 -0.118)
      (xy -4.152 -0.128)
      (xy -4.185 -0.136)
      (xy -4.218 -0.142)
      (xy -4.252 -0.146)
      (xy -4.286 -0.149)
      (xy -4.32 -0.15)
    ) (layer F.Mask) (width 0.01)
  )
  (fp_poly
    (pts
      (xy 4.32 -0.05)
      (xy 4.291 -0.049)
      (xy 4.263 -0.047)
      (xy 4.234 -0.043)
      (xy 4.206 -0.038)
      (xy 4.178 -0.031)
      (xy 4.15 -0.023)
      (xy 4.123 -0.013)
      (xy 4.096 -0.002)
      (xy 4.07 0.01)
      (xy 4.045 0.024)
      (xy 4.02 0.039)
      (xy 3.997 0.055)
      (xy 3.974 0.073)
      (xy 3.952 0.091)
      (xy 3.931 0.111)
      (xy 3.911 0.132)
      (xy 3.893 0.154)
      (xy 3.875 0.177)
      (xy 3.859 0.2)
      (xy 3.844 0.225)
      (xy 3.83 0.25)
      (xy 3.818 0.276)
      (xy 3.807 0.303)
      (xy 3.797 0.33)
      (xy 3.789 0.358)
      (xy 3.782 0.386)
      (xy 3.777 0.414)
      (xy 3.773 0.443)
      (xy 3.771 0.471)
      (xy 3.77 0.5)
      (xy 3.77 1.1)
      (xy 3.771 1.129)
      (xy 3.773 1.157)
      (xy 3.777 1.186)
      (xy 3.782 1.214)
      (xy 3.789 1.242)
      (xy 3.797 1.27)
      (xy 3.807 1.297)
      (xy 3.818 1.324)
      (xy 3.83 1.35)
      (xy 3.844 1.375)
      (xy 3.859 1.4)
      (xy 3.875 1.423)
      (xy 3.893 1.446)
      (xy 3.911 1.468)
      (xy 3.931 1.489)
      (xy 3.952 1.509)
      (xy 3.974 1.527)
      (xy 3.997 1.545)
      (xy 4.02 1.561)
      (xy 4.045 1.576)
      (xy 4.07 1.59)
      (xy 4.096 1.602)
      (xy 4.123 1.613)
      (xy 4.15 1.623)
      (xy 4.178 1.631)
      (xy 4.206 1.638)
      (xy 4.234 1.643)
      (xy 4.263 1.647)
      (xy 4.291 1.649)
      (xy 4.32 1.65)
      (xy 4.349 1.649)
      (xy 4.377 1.647)
      (xy 4.406 1.643)
      (xy 4.434 1.638)
      (xy 4.462 1.631)
      (xy 4.49 1.623)
      (xy 4.517 1.613)
      (xy 4.544 1.602)
      (xy 4.57 1.59)
      (xy 4.595 1.576)
      (xy 4.62 1.561)
      (xy 4.643 1.545)
      (xy 4.666 1.527)
      (xy 4.688 1.509)
      (xy 4.709 1.489)
      (xy 4.729 1.468)
      (xy 4.747 1.446)
      (xy 4.765 1.423)
      (xy 4.781 1.4)
      (xy 4.796 1.375)
      (xy 4.81 1.35)
      (xy 4.822 1.324)
      (xy 4.833 1.297)
      (xy 4.843 1.27)
      (xy 4.851 1.242)
      (xy 4.858 1.214)
      (xy 4.863 1.186)
      (xy 4.867 1.157)
      (xy 4.869 1.129)
      (xy 4.87 1.1)
      (xy 4.87 0.5)
      (xy 4.869 0.471)
      (xy 4.867 0.443)
      (xy 4.863 0.414)
      (xy 4.858 0.386)
      (xy 4.851 0.358)
      (xy 4.843 0.33)
      (xy 4.833 0.303)
      (xy 4.822 0.276)
      (xy 4.81 0.25)
      (xy 4.796 0.225)
      (xy 4.781 0.2)
      (xy 4.765 0.177)
      (xy 4.747 0.154)
      (xy 4.729 0.132)
      (xy 4.709 0.111)
      (xy 4.688 0.091)
      (xy 4.666 0.073)
      (xy 4.643 0.055)
      (xy 4.62 0.039)
      (xy 4.595 0.024)
      (xy 4.57 0.01)
      (xy 4.544 -0.002)
      (xy 4.517 -0.013)
      (xy 4.49 -0.023)
      (xy 4.462 -0.031)
      (xy 4.434 -0.038)
      (xy 4.406 -0.043)
      (xy 4.377 -0.047)
      (xy 4.349 -0.049)
      (xy 4.32 -0.05)
    ) (layer B.Cu) (width 0.01)
  )
  (fp_poly
    (pts
      (xy 4.32 -0.05)
      (xy 4.291 -0.049)
      (xy 4.263 -0.047)
      (xy 4.234 -0.043)
      (xy 4.206 -0.038)
      (xy 4.178 -0.031)
      (xy 4.15 -0.023)
      (xy 4.123 -0.013)
      (xy 4.096 -0.002)
      (xy 4.07 0.01)
      (xy 4.045 0.024)
      (xy 4.02 0.039)
      (xy 3.997 0.055)
      (xy 3.974 0.073)
      (xy 3.952 0.091)
      (xy 3.931 0.111)
      (xy 3.911 0.132)
      (xy 3.893 0.154)
      (xy 3.875 0.177)
      (xy 3.859 0.2)
      (xy 3.844 0.225)
      (xy 3.83 0.25)
      (xy 3.818 0.276)
      (xy 3.807 0.303)
      (xy 3.797 0.33)
      (xy 3.789 0.358)
      (xy 3.782 0.386)
      (xy 3.777 0.414)
      (xy 3.773 0.443)
      (xy 3.771 0.471)
      (xy 3.77 0.5)
      (xy 3.77 1.1)
      (xy 3.771 1.129)
      (xy 3.773 1.157)
      (xy 3.777 1.186)
      (xy 3.782 1.214)
      (xy 3.789 1.242)
      (xy 3.797 1.27)
      (xy 3.807 1.297)
      (xy 3.818 1.324)
      (xy 3.83 1.35)
      (xy 3.844 1.375)
      (xy 3.859 1.4)
      (xy 3.875 1.423)
      (xy 3.893 1.446)
      (xy 3.911 1.468)
      (xy 3.931 1.489)
      (xy 3.952 1.509)
      (xy 3.974 1.527)
      (xy 3.997 1.545)
      (xy 4.02 1.561)
      (xy 4.045 1.576)
      (xy 4.07 1.59)
      (xy 4.096 1.602)
      (xy 4.123 1.613)
      (xy 4.15 1.623)
      (xy 4.178 1.631)
      (xy 4.206 1.638)
      (xy 4.234 1.643)
      (xy 4.263 1.647)
      (xy 4.291 1.649)
      (xy 4.32 1.65)
      (xy 4.349 1.649)
      (xy 4.377 1.647)
      (xy 4.406 1.643)
      (xy 4.434 1.638)
      (xy 4.462 1.631)
      (xy 4.49 1.623)
      (xy 4.517 1.613)
      (xy 4.544 1.602)
      (xy 4.57 1.59)
      (xy 4.595 1.576)
      (xy 4.62 1.561)
      (xy 4.643 1.545)
      (xy 4.666 1.527)
      (xy 4.688 1.509)
      (xy 4.709 1.489)
      (xy 4.729 1.468)
      (xy 4.747 1.446)
      (xy 4.765 1.423)
      (xy 4.781 1.4)
      (xy 4.796 1.375)
      (xy 4.81 1.35)
      (xy 4.822 1.324)
      (xy 4.833 1.297)
      (xy 4.843 1.27)
      (xy 4.851 1.242)
      (xy 4.858 1.214)
      (xy 4.863 1.186)
      (xy 4.867 1.157)
      (xy 4.869 1.129)
      (xy 4.87 1.1)
      (xy 4.87 0.5)
      (xy 4.869 0.471)
      (xy 4.867 0.443)
      (xy 4.863 0.414)
      (xy 4.858 0.386)
      (xy 4.851 0.358)
      (xy 4.843 0.33)
      (xy 4.833 0.303)
      (xy 4.822 0.276)
      (xy 4.81 0.25)
      (xy 4.796 0.225)
      (xy 4.781 0.2)
      (xy 4.765 0.177)
      (xy 4.747 0.154)
      (xy 4.729 0.132)
      (xy 4.709 0.111)
      (xy 4.688 0.091)
      (xy 4.666 0.073)
      (xy 4.643 0.055)
      (xy 4.62 0.039)
      (xy 4.595 0.024)
      (xy 4.57 0.01)
      (xy 4.544 -0.002)
      (xy 4.517 -0.013)
      (xy 4.49 -0.023)
      (xy 4.462 -0.031)
      (xy 4.434 -0.038)
      (xy 4.406 -0.043)
      (xy 4.377 -0.047)
      (xy 4.349 -0.049)
      (xy 4.32 -0.05)
    ) (layer F.Cu) (width 0.01)
  )
  (fp_poly
    (pts
      (xy 4.32 -0.15)
      (xy 4.286 -0.149)
      (xy 4.252 -0.146)
      (xy 4.218 -0.142)
      (xy 4.185 -0.136)
      (xy 4.152 -0.128)
      (xy 4.119 -0.118)
      (xy 4.087 -0.107)
      (xy 4.056 -0.094)
      (xy 4.025 -0.079)
      (xy 3.995 -0.063)
      (xy 3.966 -0.045)
      (xy 3.938 -0.026)
      (xy 3.911 -0.005)
      (xy 3.885 0.017)
      (xy 3.86 0.04)
      (xy 3.837 0.065)
      (xy 3.815 0.091)
      (xy 3.794 0.118)
      (xy 3.775 0.146)
      (xy 3.757 0.175)
      (xy 3.741 0.205)
      (xy 3.726 0.236)
      (xy 3.713 0.267)
      (xy 3.702 0.299)
      (xy 3.692 0.332)
      (xy 3.684 0.365)
      (xy 3.678 0.398)
      (xy 3.674 0.432)
      (xy 3.671 0.466)
      (xy 3.67 0.5)
      (xy 3.67 1.1)
      (xy 3.671 1.134)
      (xy 3.674 1.168)
      (xy 3.678 1.202)
      (xy 3.684 1.235)
      (xy 3.692 1.268)
      (xy 3.702 1.301)
      (xy 3.713 1.333)
      (xy 3.726 1.364)
      (xy 3.741 1.395)
      (xy 3.757 1.425)
      (xy 3.775 1.454)
      (xy 3.794 1.482)
      (xy 3.815 1.509)
      (xy 3.837 1.535)
      (xy 3.86 1.56)
      (xy 3.885 1.583)
      (xy 3.911 1.605)
      (xy 3.938 1.626)
      (xy 3.966 1.645)
      (xy 3.995 1.663)
      (xy 4.025 1.679)
      (xy 4.056 1.694)
      (xy 4.087 1.707)
      (xy 4.119 1.718)
      (xy 4.152 1.728)
      (xy 4.185 1.736)
      (xy 4.218 1.742)
      (xy 4.252 1.746)
      (xy 4.286 1.749)
      (xy 4.32 1.75)
      (xy 4.354 1.749)
      (xy 4.388 1.746)
      (xy 4.422 1.742)
      (xy 4.455 1.736)
      (xy 4.488 1.728)
      (xy 4.521 1.718)
      (xy 4.553 1.707)
      (xy 4.584 1.694)
      (xy 4.615 1.679)
      (xy 4.645 1.663)
      (xy 4.674 1.645)
      (xy 4.702 1.626)
      (xy 4.729 1.605)
      (xy 4.755 1.583)
      (xy 4.78 1.56)
      (xy 4.803 1.535)
      (xy 4.825 1.509)
      (xy 4.846 1.482)
      (xy 4.865 1.454)
      (xy 4.883 1.425)
      (xy 4.899 1.395)
      (xy 4.914 1.364)
      (xy 4.927 1.333)
      (xy 4.938 1.301)
      (xy 4.948 1.268)
      (xy 4.956 1.235)
      (xy 4.962 1.202)
      (xy 4.966 1.168)
      (xy 4.969 1.134)
      (xy 4.97 1.1)
      (xy 4.97 0.5)
      (xy 4.969 0.466)
      (xy 4.966 0.432)
      (xy 4.962 0.398)
      (xy 4.956 0.365)
      (xy 4.948 0.332)
      (xy 4.938 0.299)
      (xy 4.927 0.267)
      (xy 4.914 0.236)
      (xy 4.899 0.205)
      (xy 4.883 0.175)
      (xy 4.865 0.146)
      (xy 4.846 0.118)
      (xy 4.825 0.091)
      (xy 4.803 0.065)
      (xy 4.78 0.04)
      (xy 4.755 0.017)
      (xy 4.729 -0.005)
      (xy 4.702 -0.026)
      (xy 4.674 -0.045)
      (xy 4.645 -0.063)
      (xy 4.615 -0.079)
      (xy 4.584 -0.094)
      (xy 4.553 -0.107)
      (xy 4.521 -0.118)
      (xy 4.488 -0.128)
      (xy 4.455 -0.136)
      (xy 4.422 -0.142)
      (xy 4.388 -0.146)
      (xy 4.354 -0.149)
      (xy 4.32 -0.15)
    ) (layer B.Mask) (width 0.01)
  )
  (fp_poly
    (pts
      (xy 4.32 -0.15)
      (xy 4.286 -0.149)
      (xy 4.252 -0.146)
      (xy 4.218 -0.142)
      (xy 4.185 -0.136)
      (xy 4.152 -0.128)
      (xy 4.119 -0.118)
      (xy 4.087 -0.107)
      (xy 4.056 -0.094)
      (xy 4.025 -0.079)
      (xy 3.995 -0.063)
      (xy 3.966 -0.045)
      (xy 3.938 -0.026)
      (xy 3.911 -0.005)
      (xy 3.885 0.017)
      (xy 3.86 0.04)
      (xy 3.837 0.065)
      (xy 3.815 0.091)
      (xy 3.794 0.118)
      (xy 3.775 0.146)
      (xy 3.757 0.175)
      (xy 3.741 0.205)
      (xy 3.726 0.236)
      (xy 3.713 0.267)
      (xy 3.702 0.299)
      (xy 3.692 0.332)
      (xy 3.684 0.365)
      (xy 3.678 0.398)
      (xy 3.674 0.432)
      (xy 3.671 0.466)
      (xy 3.67 0.5)
      (xy 3.67 1.1)
      (xy 3.671 1.134)
      (xy 3.674 1.168)
      (xy 3.678 1.202)
      (xy 3.684 1.235)
      (xy 3.692 1.268)
      (xy 3.702 1.301)
      (xy 3.713 1.333)
      (xy 3.726 1.364)
      (xy 3.741 1.395)
      (xy 3.757 1.425)
      (xy 3.775 1.454)
      (xy 3.794 1.482)
      (xy 3.815 1.509)
      (xy 3.837 1.535)
      (xy 3.86 1.56)
      (xy 3.885 1.583)
      (xy 3.911 1.605)
      (xy 3.938 1.626)
      (xy 3.966 1.645)
      (xy 3.995 1.663)
      (xy 4.025 1.679)
      (xy 4.056 1.694)
      (xy 4.087 1.707)
      (xy 4.119 1.718)
      (xy 4.152 1.728)
      (xy 4.185 1.736)
      (xy 4.218 1.742)
      (xy 4.252 1.746)
      (xy 4.286 1.749)
      (xy 4.32 1.75)
      (xy 4.354 1.749)
      (xy 4.388 1.746)
      (xy 4.422 1.742)
      (xy 4.455 1.736)
      (xy 4.488 1.728)
      (xy 4.521 1.718)
      (xy 4.553 1.707)
      (xy 4.584 1.694)
      (xy 4.615 1.679)
      (xy 4.645 1.663)
      (xy 4.674 1.645)
      (xy 4.702 1.626)
      (xy 4.729 1.605)
      (xy 4.755 1.583)
      (xy 4.78 1.56)
      (xy 4.803 1.535)
      (xy 4.825 1.509)
      (xy 4.846 1.482)
      (xy 4.865 1.454)
      (xy 4.883 1.425)
      (xy 4.899 1.395)
      (xy 4.914 1.364)
      (xy 4.927 1.333)
      (xy 4.938 1.301)
      (xy 4.948 1.268)
      (xy 4.956 1.235)
      (xy 4.962 1.202)
      (xy 4.966 1.168)
      (xy 4.969 1.134)
      (xy 4.97 1.1)
      (xy 4.97 0.5)
      (xy 4.969 0.466)
      (xy 4.966 0.432)
      (xy 4.962 0.398)
      (xy 4.956 0.365)
      (xy 4.948 0.332)
      (xy 4.938 0.299)
      (xy 4.927 0.267)
      (xy 4.914 0.236)
      (xy 4.899 0.205)
      (xy 4.883 0.175)
      (xy 4.865 0.146)
      (xy 4.846 0.118)
      (xy 4.825 0.091)
      (xy 4.803 0.065)
      (xy 4.78 0.04)
      (xy 4.755 0.017)
      (xy 4.729 -0.005)
      (xy 4.702 -0.026)
      (xy 4.674 -0.045)
      (xy 4.645 -0.063)
      (xy 4.615 -0.079)
      (xy 4.584 -0.094)
      (xy 4.553 -0.107)
      (xy 4.521 -0.118)
      (xy 4.488 -0.128)
      (xy 4.455 -0.136)
      (xy 4.422 -0.142)
      (xy 4.388 -0.146)
      (xy 4.354 -0.149)
      (xy 4.32 -0.15)
    ) (layer F.Mask) (width 0.01)
  )
  (fp_poly
    (pts
      (xy -4.32 -3.85)
      (xy -4.349 -3.849)
      (xy -4.377 -3.847)
      (xy -4.406 -3.843)
      (xy -4.434 -3.838)
      (xy -4.462 -3.831)
      (xy -4.49 -3.823)
      (xy -4.517 -3.813)
      (xy -4.544 -3.802)
      (xy -4.57 -3.79)
      (xy -4.595 -3.776)
      (xy -4.62 -3.761)
      (xy -4.643 -3.745)
      (xy -4.666 -3.727)
      (xy -4.688 -3.709)
      (xy -4.709 -3.689)
      (xy -4.729 -3.668)
      (xy -4.747 -3.646)
      (xy -4.765 -3.623)
      (xy -4.781 -3.6)
      (xy -4.796 -3.575)
      (xy -4.81 -3.55)
      (xy -4.822 -3.524)
      (xy -4.833 -3.497)
      (xy -4.843 -3.47)
      (xy -4.851 -3.442)
      (xy -4.858 -3.414)
      (xy -4.863 -3.386)
      (xy -4.867 -3.357)
      (xy -4.869 -3.329)
      (xy -4.87 -3.3)
      (xy -4.87 -2.7)
      (xy -4.869 -2.671)
      (xy -4.867 -2.643)
      (xy -4.863 -2.614)
      (xy -4.858 -2.586)
      (xy -4.851 -2.558)
      (xy -4.843 -2.53)
      (xy -4.833 -2.503)
      (xy -4.822 -2.476)
      (xy -4.81 -2.45)
      (xy -4.796 -2.425)
      (xy -4.781 -2.4)
      (xy -4.765 -2.377)
      (xy -4.747 -2.354)
      (xy -4.729 -2.332)
      (xy -4.709 -2.311)
      (xy -4.688 -2.291)
      (xy -4.666 -2.273)
      (xy -4.643 -2.255)
      (xy -4.62 -2.239)
      (xy -4.595 -2.224)
      (xy -4.57 -2.21)
      (xy -4.544 -2.198)
      (xy -4.517 -2.187)
      (xy -4.49 -2.177)
      (xy -4.462 -2.169)
      (xy -4.434 -2.162)
      (xy -4.406 -2.157)
      (xy -4.377 -2.153)
      (xy -4.349 -2.151)
      (xy -4.32 -2.15)
      (xy -4.291 -2.151)
      (xy -4.263 -2.153)
      (xy -4.234 -2.157)
      (xy -4.206 -2.162)
      (xy -4.178 -2.169)
      (xy -4.15 -2.177)
      (xy -4.123 -2.187)
      (xy -4.096 -2.198)
      (xy -4.07 -2.21)
      (xy -4.045 -2.224)
      (xy -4.02 -2.239)
      (xy -3.997 -2.255)
      (xy -3.974 -2.273)
      (xy -3.952 -2.291)
      (xy -3.931 -2.311)
      (xy -3.911 -2.332)
      (xy -3.893 -2.354)
      (xy -3.875 -2.377)
      (xy -3.859 -2.4)
      (xy -3.844 -2.425)
      (xy -3.83 -2.45)
      (xy -3.818 -2.476)
      (xy -3.807 -2.503)
      (xy -3.797 -2.53)
      (xy -3.789 -2.558)
      (xy -3.782 -2.586)
      (xy -3.777 -2.614)
      (xy -3.773 -2.643)
      (xy -3.771 -2.671)
      (xy -3.77 -2.7)
      (xy -3.77 -3.3)
      (xy -3.771 -3.329)
      (xy -3.773 -3.357)
      (xy -3.777 -3.386)
      (xy -3.782 -3.414)
      (xy -3.789 -3.442)
      (xy -3.797 -3.47)
      (xy -3.807 -3.497)
      (xy -3.818 -3.524)
      (xy -3.83 -3.55)
      (xy -3.844 -3.575)
      (xy -3.859 -3.6)
      (xy -3.875 -3.623)
      (xy -3.893 -3.646)
      (xy -3.911 -3.668)
      (xy -3.931 -3.689)
      (xy -3.952 -3.709)
      (xy -3.974 -3.727)
      (xy -3.997 -3.745)
      (xy -4.02 -3.761)
      (xy -4.045 -3.776)
      (xy -4.07 -3.79)
      (xy -4.096 -3.802)
      (xy -4.123 -3.813)
      (xy -4.15 -3.823)
      (xy -4.178 -3.831)
      (xy -4.206 -3.838)
      (xy -4.234 -3.843)
      (xy -4.263 -3.847)
      (xy -4.291 -3.849)
      (xy -4.32 -3.85)
    ) (layer B.Cu) (width 0.01)
  )
  (fp_poly
    (pts
      (xy -4.32 -3.85)
      (xy -4.349 -3.849)
      (xy -4.377 -3.847)
      (xy -4.406 -3.843)
      (xy -4.434 -3.838)
      (xy -4.462 -3.831)
      (xy -4.49 -3.823)
      (xy -4.517 -3.813)
      (xy -4.544 -3.802)
      (xy -4.57 -3.79)
      (xy -4.595 -3.776)
      (xy -4.62 -3.761)
      (xy -4.643 -3.745)
      (xy -4.666 -3.727)
      (xy -4.688 -3.709)
      (xy -4.709 -3.689)
      (xy -4.729 -3.668)
      (xy -4.747 -3.646)
      (xy -4.765 -3.623)
      (xy -4.781 -3.6)
      (xy -4.796 -3.575)
      (xy -4.81 -3.55)
      (xy -4.822 -3.524)
      (xy -4.833 -3.497)
      (xy -4.843 -3.47)
      (xy -4.851 -3.442)
      (xy -4.858 -3.414)
      (xy -4.863 -3.386)
      (xy -4.867 -3.357)
      (xy -4.869 -3.329)
      (xy -4.87 -3.3)
      (xy -4.87 -2.7)
      (xy -4.869 -2.671)
      (xy -4.867 -2.643)
      (xy -4.863 -2.614)
      (xy -4.858 -2.586)
      (xy -4.851 -2.558)
      (xy -4.843 -2.53)
      (xy -4.833 -2.503)
      (xy -4.822 -2.476)
      (xy -4.81 -2.45)
      (xy -4.796 -2.425)
      (xy -4.781 -2.4)
      (xy -4.765 -2.377)
      (xy -4.747 -2.354)
      (xy -4.729 -2.332)
      (xy -4.709 -2.311)
      (xy -4.688 -2.291)
      (xy -4.666 -2.273)
      (xy -4.643 -2.255)
      (xy -4.62 -2.239)
      (xy -4.595 -2.224)
      (xy -4.57 -2.21)
      (xy -4.544 -2.198)
      (xy -4.517 -2.187)
      (xy -4.49 -2.177)
      (xy -4.462 -2.169)
      (xy -4.434 -2.162)
      (xy -4.406 -2.157)
      (xy -4.377 -2.153)
      (xy -4.349 -2.151)
      (xy -4.32 -2.15)
      (xy -4.291 -2.151)
      (xy -4.263 -2.153)
      (xy -4.234 -2.157)
      (xy -4.206 -2.162)
      (xy -4.178 -2.169)
      (xy -4.15 -2.177)
      (xy -4.123 -2.187)
      (xy -4.096 -2.198)
      (xy -4.07 -2.21)
      (xy -4.045 -2.224)
      (xy -4.02 -2.239)
      (xy -3.997 -2.255)
      (xy -3.974 -2.273)
      (xy -3.952 -2.291)
      (xy -3.931 -2.311)
      (xy -3.911 -2.332)
      (xy -3.893 -2.354)
      (xy -3.875 -2.377)
      (xy -3.859 -2.4)
      (xy -3.844 -2.425)
      (xy -3.83 -2.45)
      (xy -3.818 -2.476)
      (xy -3.807 -2.503)
      (xy -3.797 -2.53)
      (xy -3.789 -2.558)
      (xy -3.782 -2.586)
      (xy -3.777 -2.614)
      (xy -3.773 -2.643)
      (xy -3.771 -2.671)
      (xy -3.77 -2.7)
      (xy -3.77 -3.3)
      (xy -3.771 -3.329)
      (xy -3.773 -3.357)
      (xy -3.777 -3.386)
      (xy -3.782 -3.414)
      (xy -3.789 -3.442)
      (xy -3.797 -3.47)
      (xy -3.807 -3.497)
      (xy -3.818 -3.524)
      (xy -3.83 -3.55)
      (xy -3.844 -3.575)
      (xy -3.859 -3.6)
      (xy -3.875 -3.623)
      (xy -3.893 -3.646)
      (xy -3.911 -3.668)
      (xy -3.931 -3.689)
      (xy -3.952 -3.709)
      (xy -3.974 -3.727)
      (xy -3.997 -3.745)
      (xy -4.02 -3.761)
      (xy -4.045 -3.776)
      (xy -4.07 -3.79)
      (xy -4.096 -3.802)
      (xy -4.123 -3.813)
      (xy -4.15 -3.823)
      (xy -4.178 -3.831)
      (xy -4.206 -3.838)
      (xy -4.234 -3.843)
      (xy -4.263 -3.847)
      (xy -4.291 -3.849)
      (xy -4.32 -3.85)
    ) (layer F.Cu) (width 0.01)
  )
  (fp_poly
    (pts
      (xy -4.32 -3.95)
      (xy -4.354 -3.949)
      (xy -4.388 -3.946)
      (xy -4.422 -3.942)
      (xy -4.455 -3.936)
      (xy -4.488 -3.928)
      (xy -4.521 -3.918)
      (xy -4.553 -3.907)
      (xy -4.584 -3.894)
      (xy -4.615 -3.879)
      (xy -4.645 -3.863)
      (xy -4.674 -3.845)
      (xy -4.702 -3.826)
      (xy -4.729 -3.805)
      (xy -4.755 -3.783)
      (xy -4.78 -3.76)
      (xy -4.803 -3.735)
      (xy -4.825 -3.709)
      (xy -4.846 -3.682)
      (xy -4.865 -3.654)
      (xy -4.883 -3.625)
      (xy -4.899 -3.595)
      (xy -4.914 -3.564)
      (xy -4.927 -3.533)
      (xy -4.938 -3.501)
      (xy -4.948 -3.468)
      (xy -4.956 -3.435)
      (xy -4.962 -3.402)
      (xy -4.966 -3.368)
      (xy -4.969 -3.334)
      (xy -4.97 -3.3)
      (xy -4.97 -2.7)
      (xy -4.969 -2.666)
      (xy -4.966 -2.632)
      (xy -4.962 -2.598)
      (xy -4.956 -2.565)
      (xy -4.948 -2.532)
      (xy -4.938 -2.499)
      (xy -4.927 -2.467)
      (xy -4.914 -2.436)
      (xy -4.899 -2.405)
      (xy -4.883 -2.375)
      (xy -4.865 -2.346)
      (xy -4.846 -2.318)
      (xy -4.825 -2.291)
      (xy -4.803 -2.265)
      (xy -4.78 -2.24)
      (xy -4.755 -2.217)
      (xy -4.729 -2.195)
      (xy -4.702 -2.174)
      (xy -4.674 -2.155)
      (xy -4.645 -2.137)
      (xy -4.615 -2.121)
      (xy -4.584 -2.106)
      (xy -4.553 -2.093)
      (xy -4.521 -2.082)
      (xy -4.488 -2.072)
      (xy -4.455 -2.064)
      (xy -4.422 -2.058)
      (xy -4.388 -2.054)
      (xy -4.354 -2.051)
      (xy -4.32 -2.05)
      (xy -4.286 -2.051)
      (xy -4.252 -2.054)
      (xy -4.218 -2.058)
      (xy -4.185 -2.064)
      (xy -4.152 -2.072)
      (xy -4.119 -2.082)
      (xy -4.087 -2.093)
      (xy -4.056 -2.106)
      (xy -4.025 -2.121)
      (xy -3.995 -2.137)
      (xy -3.966 -2.155)
      (xy -3.938 -2.174)
      (xy -3.911 -2.195)
      (xy -3.885 -2.217)
      (xy -3.86 -2.24)
      (xy -3.837 -2.265)
      (xy -3.815 -2.291)
      (xy -3.794 -2.318)
      (xy -3.775 -2.346)
      (xy -3.757 -2.375)
      (xy -3.741 -2.405)
      (xy -3.726 -2.436)
      (xy -3.713 -2.467)
      (xy -3.702 -2.499)
      (xy -3.692 -2.532)
      (xy -3.684 -2.565)
      (xy -3.678 -2.598)
      (xy -3.674 -2.632)
      (xy -3.671 -2.666)
      (xy -3.67 -2.7)
      (xy -3.67 -3.3)
      (xy -3.671 -3.334)
      (xy -3.674 -3.368)
      (xy -3.678 -3.402)
      (xy -3.684 -3.435)
      (xy -3.692 -3.468)
      (xy -3.702 -3.501)
      (xy -3.713 -3.533)
      (xy -3.726 -3.564)
      (xy -3.741 -3.595)
      (xy -3.757 -3.625)
      (xy -3.775 -3.654)
      (xy -3.794 -3.682)
      (xy -3.815 -3.709)
      (xy -3.837 -3.735)
      (xy -3.86 -3.76)
      (xy -3.885 -3.783)
      (xy -3.911 -3.805)
      (xy -3.938 -3.826)
      (xy -3.966 -3.845)
      (xy -3.995 -3.863)
      (xy -4.025 -3.879)
      (xy -4.056 -3.894)
      (xy -4.087 -3.907)
      (xy -4.119 -3.918)
      (xy -4.152 -3.928)
      (xy -4.185 -3.936)
      (xy -4.218 -3.942)
      (xy -4.252 -3.946)
      (xy -4.286 -3.949)
      (xy -4.32 -3.95)
    ) (layer B.Mask) (width 0.01)
  )
  (fp_poly
    (pts
      (xy -4.32 -3.95)
      (xy -4.354 -3.949)
      (xy -4.388 -3.946)
      (xy -4.422 -3.942)
      (xy -4.455 -3.936)
      (xy -4.488 -3.928)
      (xy -4.521 -3.918)
      (xy -4.553 -3.907)
      (xy -4.584 -3.894)
      (xy -4.615 -3.879)
      (xy -4.645 -3.863)
      (xy -4.674 -3.845)
      (xy -4.702 -3.826)
      (xy -4.729 -3.805)
      (xy -4.755 -3.783)
      (xy -4.78 -3.76)
      (xy -4.803 -3.735)
      (xy -4.825 -3.709)
      (xy -4.846 -3.682)
      (xy -4.865 -3.654)
      (xy -4.883 -3.625)
      (xy -4.899 -3.595)
      (xy -4.914 -3.564)
      (xy -4.927 -3.533)
      (xy -4.938 -3.501)
      (xy -4.948 -3.468)
      (xy -4.956 -3.435)
      (xy -4.962 -3.402)
      (xy -4.966 -3.368)
      (xy -4.969 -3.334)
      (xy -4.97 -3.3)
      (xy -4.97 -2.7)
      (xy -4.969 -2.666)
      (xy -4.966 -2.632)
      (xy -4.962 -2.598)
      (xy -4.956 -2.565)
      (xy -4.948 -2.532)
      (xy -4.938 -2.499)
      (xy -4.927 -2.467)
      (xy -4.914 -2.436)
      (xy -4.899 -2.405)
      (xy -4.883 -2.375)
      (xy -4.865 -2.346)
      (xy -4.846 -2.318)
      (xy -4.825 -2.291)
      (xy -4.803 -2.265)
      (xy -4.78 -2.24)
      (xy -4.755 -2.217)
      (xy -4.729 -2.195)
      (xy -4.702 -2.174)
      (xy -4.674 -2.155)
      (xy -4.645 -2.137)
      (xy -4.615 -2.121)
      (xy -4.584 -2.106)
      (xy -4.553 -2.093)
      (xy -4.521 -2.082)
      (xy -4.488 -2.072)
      (xy -4.455 -2.064)
      (xy -4.422 -2.058)
      (xy -4.388 -2.054)
      (xy -4.354 -2.051)
      (xy -4.32 -2.05)
      (xy -4.286 -2.051)
      (xy -4.252 -2.054)
      (xy -4.218 -2.058)
      (xy -4.185 -2.064)
      (xy -4.152 -2.072)
      (xy -4.119 -2.082)
      (xy -4.087 -2.093)
      (xy -4.056 -2.106)
      (xy -4.025 -2.121)
      (xy -3.995 -2.137)
      (xy -3.966 -2.155)
      (xy -3.938 -2.174)
      (xy -3.911 -2.195)
      (xy -3.885 -2.217)
      (xy -3.86 -2.24)
      (xy -3.837 -2.265)
      (xy -3.815 -2.291)
      (xy -3.794 -2.318)
      (xy -3.775 -2.346)
      (xy -3.757 -2.375)
      (xy -3.741 -2.405)
      (xy -3.726 -2.436)
      (xy -3.713 -2.467)
      (xy -3.702 -2.499)
      (xy -3.692 -2.532)
      (xy -3.684 -2.565)
      (xy -3.678 -2.598)
      (xy -3.674 -2.632)
      (xy -3.671 -2.666)
      (xy -3.67 -2.7)
      (xy -3.67 -3.3)
      (xy -3.671 -3.334)
      (xy -3.674 -3.368)
      (xy -3.678 -3.402)
      (xy -3.684 -3.435)
      (xy -3.692 -3.468)
      (xy -3.702 -3.501)
      (xy -3.713 -3.533)
      (xy -3.726 -3.564)
      (xy -3.741 -3.595)
      (xy -3.757 -3.625)
      (xy -3.775 -3.654)
      (xy -3.794 -3.682)
      (xy -3.815 -3.709)
      (xy -3.837 -3.735)
      (xy -3.86 -3.76)
      (xy -3.885 -3.783)
      (xy -3.911 -3.805)
      (xy -3.938 -3.826)
      (xy -3.966 -3.845)
      (xy -3.995 -3.863)
      (xy -4.025 -3.879)
      (xy -4.056 -3.894)
      (xy -4.087 -3.907)
      (xy -4.119 -3.918)
      (xy -4.152 -3.928)
      (xy -4.185 -3.936)
      (xy -4.218 -3.942)
      (xy -4.252 -3.946)
      (xy -4.286 -3.949)
      (xy -4.32 -3.95)
    ) (layer F.Mask) (width 0.01)
  )
  (fp_poly
    (pts
      (xy 4.32 -3.85)
      (xy 4.291 -3.849)
      (xy 4.263 -3.847)
      (xy 4.234 -3.843)
      (xy 4.206 -3.838)
      (xy 4.178 -3.831)
      (xy 4.15 -3.823)
      (xy 4.123 -3.813)
      (xy 4.096 -3.802)
      (xy 4.07 -3.79)
      (xy 4.045 -3.776)
      (xy 4.02 -3.761)
      (xy 3.997 -3.745)
      (xy 3.974 -3.727)
      (xy 3.952 -3.709)
      (xy 3.931 -3.689)
      (xy 3.911 -3.668)
      (xy 3.893 -3.646)
      (xy 3.875 -3.623)
      (xy 3.859 -3.6)
      (xy 3.844 -3.575)
      (xy 3.83 -3.55)
      (xy 3.818 -3.524)
      (xy 3.807 -3.497)
      (xy 3.797 -3.47)
      (xy 3.789 -3.442)
      (xy 3.782 -3.414)
      (xy 3.777 -3.386)
      (xy 3.773 -3.357)
      (xy 3.771 -3.329)
      (xy 3.77 -3.3)
      (xy 3.77 -2.7)
      (xy 3.771 -2.671)
      (xy 3.773 -2.643)
      (xy 3.777 -2.614)
      (xy 3.782 -2.586)
      (xy 3.789 -2.558)
      (xy 3.797 -2.53)
      (xy 3.807 -2.503)
      (xy 3.818 -2.476)
      (xy 3.83 -2.45)
      (xy 3.844 -2.425)
      (xy 3.859 -2.4)
      (xy 3.875 -2.377)
      (xy 3.893 -2.354)
      (xy 3.911 -2.332)
      (xy 3.931 -2.311)
      (xy 3.952 -2.291)
      (xy 3.974 -2.273)
      (xy 3.997 -2.255)
      (xy 4.02 -2.239)
      (xy 4.045 -2.224)
      (xy 4.07 -2.21)
      (xy 4.096 -2.198)
      (xy 4.123 -2.187)
      (xy 4.15 -2.177)
      (xy 4.178 -2.169)
      (xy 4.206 -2.162)
      (xy 4.234 -2.157)
      (xy 4.263 -2.153)
      (xy 4.291 -2.151)
      (xy 4.32 -2.15)
      (xy 4.349 -2.151)
      (xy 4.377 -2.153)
      (xy 4.406 -2.157)
      (xy 4.434 -2.162)
      (xy 4.462 -2.169)
      (xy 4.49 -2.177)
      (xy 4.517 -2.187)
      (xy 4.544 -2.198)
      (xy 4.57 -2.21)
      (xy 4.595 -2.224)
      (xy 4.62 -2.239)
      (xy 4.643 -2.255)
      (xy 4.666 -2.273)
      (xy 4.688 -2.291)
      (xy 4.709 -2.311)
      (xy 4.729 -2.332)
      (xy 4.747 -2.354)
      (xy 4.765 -2.377)
      (xy 4.781 -2.4)
      (xy 4.796 -2.425)
      (xy 4.81 -2.45)
      (xy 4.822 -2.476)
      (xy 4.833 -2.503)
      (xy 4.843 -2.53)
      (xy 4.851 -2.558)
      (xy 4.858 -2.586)
      (xy 4.863 -2.614)
      (xy 4.867 -2.643)
      (xy 4.869 -2.671)
      (xy 4.87 -2.7)
      (xy 4.87 -3.3)
      (xy 4.869 -3.329)
      (xy 4.867 -3.357)
      (xy 4.863 -3.386)
      (xy 4.858 -3.414)
      (xy 4.851 -3.442)
      (xy 4.843 -3.47)
      (xy 4.833 -3.497)
      (xy 4.822 -3.524)
      (xy 4.81 -3.55)
      (xy 4.796 -3.575)
      (xy 4.781 -3.6)
      (xy 4.765 -3.623)
      (xy 4.747 -3.646)
      (xy 4.729 -3.668)
      (xy 4.709 -3.689)
      (xy 4.688 -3.709)
      (xy 4.666 -3.727)
      (xy 4.643 -3.745)
      (xy 4.62 -3.761)
      (xy 4.595 -3.776)
      (xy 4.57 -3.79)
      (xy 4.544 -3.802)
      (xy 4.517 -3.813)
      (xy 4.49 -3.823)
      (xy 4.462 -3.831)
      (xy 4.434 -3.838)
      (xy 4.406 -3.843)
      (xy 4.377 -3.847)
      (xy 4.349 -3.849)
      (xy 4.32 -3.85)
    ) (layer B.Cu) (width 0.01)
  )
  (fp_poly
    (pts
      (xy 4.32 -3.85)
      (xy 4.291 -3.849)
      (xy 4.263 -3.847)
      (xy 4.234 -3.843)
      (xy 4.206 -3.838)
      (xy 4.178 -3.831)
      (xy 4.15 -3.823)
      (xy 4.123 -3.813)
      (xy 4.096 -3.802)
      (xy 4.07 -3.79)
      (xy 4.045 -3.776)
      (xy 4.02 -3.761)
      (xy 3.997 -3.745)
      (xy 3.974 -3.727)
      (xy 3.952 -3.709)
      (xy 3.931 -3.689)
      (xy 3.911 -3.668)
      (xy 3.893 -3.646)
      (xy 3.875 -3.623)
      (xy 3.859 -3.6)
      (xy 3.844 -3.575)
      (xy 3.83 -3.55)
      (xy 3.818 -3.524)
      (xy 3.807 -3.497)
      (xy 3.797 -3.47)
      (xy 3.789 -3.442)
      (xy 3.782 -3.414)
      (xy 3.777 -3.386)
      (xy 3.773 -3.357)
      (xy 3.771 -3.329)
      (xy 3.77 -3.3)
      (xy 3.77 -2.7)
      (xy 3.771 -2.671)
      (xy 3.773 -2.643)
      (xy 3.777 -2.614)
      (xy 3.782 -2.586)
      (xy 3.789 -2.558)
      (xy 3.797 -2.53)
      (xy 3.807 -2.503)
      (xy 3.818 -2.476)
      (xy 3.83 -2.45)
      (xy 3.844 -2.425)
      (xy 3.859 -2.4)
      (xy 3.875 -2.377)
      (xy 3.893 -2.354)
      (xy 3.911 -2.332)
      (xy 3.931 -2.311)
      (xy 3.952 -2.291)
      (xy 3.974 -2.273)
      (xy 3.997 -2.255)
      (xy 4.02 -2.239)
      (xy 4.045 -2.224)
      (xy 4.07 -2.21)
      (xy 4.096 -2.198)
      (xy 4.123 -2.187)
      (xy 4.15 -2.177)
      (xy 4.178 -2.169)
      (xy 4.206 -2.162)
      (xy 4.234 -2.157)
      (xy 4.263 -2.153)
      (xy 4.291 -2.151)
      (xy 4.32 -2.15)
      (xy 4.349 -2.151)
      (xy 4.377 -2.153)
      (xy 4.406 -2.157)
      (xy 4.434 -2.162)
      (xy 4.462 -2.169)
      (xy 4.49 -2.177)
      (xy 4.517 -2.187)
      (xy 4.544 -2.198)
      (xy 4.57 -2.21)
      (xy 4.595 -2.224)
      (xy 4.62 -2.239)
      (xy 4.643 -2.255)
      (xy 4.666 -2.273)
      (xy 4.688 -2.291)
      (xy 4.709 -2.311)
      (xy 4.729 -2.332)
      (xy 4.747 -2.354)
      (xy 4.765 -2.377)
      (xy 4.781 -2.4)
      (xy 4.796 -2.425)
      (xy 4.81 -2.45)
      (xy 4.822 -2.476)
      (xy 4.833 -2.503)
      (xy 4.843 -2.53)
      (xy 4.851 -2.558)
      (xy 4.858 -2.586)
      (xy 4.863 -2.614)
      (xy 4.867 -2.643)
      (xy 4.869 -2.671)
      (xy 4.87 -2.7)
      (xy 4.87 -3.3)
      (xy 4.869 -3.329)
      (xy 4.867 -3.357)
      (xy 4.863 -3.386)
      (xy 4.858 -3.414)
      (xy 4.851 -3.442)
      (xy 4.843 -3.47)
      (xy 4.833 -3.497)
      (xy 4.822 -3.524)
      (xy 4.81 -3.55)
      (xy 4.796 -3.575)
      (xy 4.781 -3.6)
      (xy 4.765 -3.623)
      (xy 4.747 -3.646)
      (xy 4.729 -3.668)
      (xy 4.709 -3.689)
      (xy 4.688 -3.709)
      (xy 4.666 -3.727)
      (xy 4.643 -3.745)
      (xy 4.62 -3.761)
      (xy 4.595 -3.776)
      (xy 4.57 -3.79)
      (xy 4.544 -3.802)
      (xy 4.517 -3.813)
      (xy 4.49 -3.823)
      (xy 4.462 -3.831)
      (xy 4.434 -3.838)
      (xy 4.406 -3.843)
      (xy 4.377 -3.847)
      (xy 4.349 -3.849)
      (xy 4.32 -3.85)
    ) (layer F.Cu) (width 0.01)
  )
  (fp_poly
    (pts
      (xy 4.32 -3.95)
      (xy 4.286 -3.949)
      (xy 4.252 -3.946)
      (xy 4.218 -3.942)
      (xy 4.185 -3.936)
      (xy 4.152 -3.928)
      (xy 4.119 -3.918)
      (xy 4.087 -3.907)
      (xy 4.056 -3.894)
      (xy 4.025 -3.879)
      (xy 3.995 -3.863)
      (xy 3.966 -3.845)
      (xy 3.938 -3.826)
      (xy 3.911 -3.805)
      (xy 3.885 -3.783)
      (xy 3.86 -3.76)
      (xy 3.837 -3.735)
      (xy 3.815 -3.709)
      (xy 3.794 -3.682)
      (xy 3.775 -3.654)
      (xy 3.757 -3.625)
      (xy 3.741 -3.595)
      (xy 3.726 -3.564)
      (xy 3.713 -3.533)
      (xy 3.702 -3.501)
      (xy 3.692 -3.468)
      (xy 3.684 -3.435)
      (xy 3.678 -3.402)
      (xy 3.674 -3.368)
      (xy 3.671 -3.334)
      (xy 3.67 -3.3)
      (xy 3.67 -2.7)
      (xy 3.671 -2.666)
      (xy 3.674 -2.632)
      (xy 3.678 -2.598)
      (xy 3.684 -2.565)
      (xy 3.692 -2.532)
      (xy 3.702 -2.499)
      (xy 3.713 -2.467)
      (xy 3.726 -2.436)
      (xy 3.741 -2.405)
      (xy 3.757 -2.375)
      (xy 3.775 -2.346)
      (xy 3.794 -2.318)
      (xy 3.815 -2.291)
      (xy 3.837 -2.265)
      (xy 3.86 -2.24)
      (xy 3.885 -2.217)
      (xy 3.911 -2.195)
      (xy 3.938 -2.174)
      (xy 3.966 -2.155)
      (xy 3.995 -2.137)
      (xy 4.025 -2.121)
      (xy 4.056 -2.106)
      (xy 4.087 -2.093)
      (xy 4.119 -2.082)
      (xy 4.152 -2.072)
      (xy 4.185 -2.064)
      (xy 4.218 -2.058)
      (xy 4.252 -2.054)
      (xy 4.286 -2.051)
      (xy 4.32 -2.05)
      (xy 4.354 -2.051)
      (xy 4.388 -2.054)
      (xy 4.422 -2.058)
      (xy 4.455 -2.064)
      (xy 4.488 -2.072)
      (xy 4.521 -2.082)
      (xy 4.553 -2.093)
      (xy 4.584 -2.106)
      (xy 4.615 -2.121)
      (xy 4.645 -2.137)
      (xy 4.674 -2.155)
      (xy 4.702 -2.174)
      (xy 4.729 -2.195)
      (xy 4.755 -2.217)
      (xy 4.78 -2.24)
      (xy 4.803 -2.265)
      (xy 4.825 -2.291)
      (xy 4.846 -2.318)
      (xy 4.865 -2.346)
      (xy 4.883 -2.375)
      (xy 4.899 -2.405)
      (xy 4.914 -2.436)
      (xy 4.927 -2.467)
      (xy 4.938 -2.499)
      (xy 4.948 -2.532)
      (xy 4.956 -2.565)
      (xy 4.962 -2.598)
      (xy 4.966 -2.632)
      (xy 4.969 -2.666)
      (xy 4.97 -2.7)
      (xy 4.97 -3.3)
      (xy 4.969 -3.334)
      (xy 4.966 -3.368)
      (xy 4.962 -3.402)
      (xy 4.956 -3.435)
      (xy 4.948 -3.468)
      (xy 4.938 -3.501)
      (xy 4.927 -3.533)
      (xy 4.914 -3.564)
      (xy 4.899 -3.595)
      (xy 4.883 -3.625)
      (xy 4.865 -3.654)
      (xy 4.846 -3.682)
      (xy 4.825 -3.709)
      (xy 4.803 -3.735)
      (xy 4.78 -3.76)
      (xy 4.755 -3.783)
      (xy 4.729 -3.805)
      (xy 4.702 -3.826)
      (xy 4.674 -3.845)
      (xy 4.645 -3.863)
      (xy 4.615 -3.879)
      (xy 4.584 -3.894)
      (xy 4.553 -3.907)
      (xy 4.521 -3.918)
      (xy 4.488 -3.928)
      (xy 4.455 -3.936)
      (xy 4.422 -3.942)
      (xy 4.388 -3.946)
      (xy 4.354 -3.949)
      (xy 4.32 -3.95)
    ) (layer B.Mask) (width 0.01)
  )
  (fp_poly
    (pts
      (xy 4.32 -3.95)
      (xy 4.286 -3.949)
      (xy 4.252 -3.946)
      (xy 4.218 -3.942)
      (xy 4.185 -3.936)
      (xy 4.152 -3.928)
      (xy 4.119 -3.918)
      (xy 4.087 -3.907)
      (xy 4.056 -3.894)
      (xy 4.025 -3.879)
      (xy 3.995 -3.863)
      (xy 3.966 -3.845)
      (xy 3.938 -3.826)
      (xy 3.911 -3.805)
      (xy 3.885 -3.783)
      (xy 3.86 -3.76)
      (xy 3.837 -3.735)
      (xy 3.815 -3.709)
      (xy 3.794 -3.682)
      (xy 3.775 -3.654)
      (xy 3.757 -3.625)
      (xy 3.741 -3.595)
      (xy 3.726 -3.564)
      (xy 3.713 -3.533)
      (xy 3.702 -3.501)
      (xy 3.692 -3.468)
      (xy 3.684 -3.435)
      (xy 3.678 -3.402)
      (xy 3.674 -3.368)
      (xy 3.671 -3.334)
      (xy 3.67 -3.3)
      (xy 3.67 -2.7)
      (xy 3.671 -2.666)
      (xy 3.674 -2.632)
      (xy 3.678 -2.598)
      (xy 3.684 -2.565)
      (xy 3.692 -2.532)
      (xy 3.702 -2.499)
      (xy 3.713 -2.467)
      (xy 3.726 -2.436)
      (xy 3.741 -2.405)
      (xy 3.757 -2.375)
      (xy 3.775 -2.346)
      (xy 3.794 -2.318)
      (xy 3.815 -2.291)
      (xy 3.837 -2.265)
      (xy 3.86 -2.24)
      (xy 3.885 -2.217)
      (xy 3.911 -2.195)
      (xy 3.938 -2.174)
      (xy 3.966 -2.155)
      (xy 3.995 -2.137)
      (xy 4.025 -2.121)
      (xy 4.056 -2.106)
      (xy 4.087 -2.093)
      (xy 4.119 -2.082)
      (xy 4.152 -2.072)
      (xy 4.185 -2.064)
      (xy 4.218 -2.058)
      (xy 4.252 -2.054)
      (xy 4.286 -2.051)
      (xy 4.32 -2.05)
      (xy 4.354 -2.051)
      (xy 4.388 -2.054)
      (xy 4.422 -2.058)
      (xy 4.455 -2.064)
      (xy 4.488 -2.072)
      (xy 4.521 -2.082)
      (xy 4.553 -2.093)
      (xy 4.584 -2.106)
      (xy 4.615 -2.121)
      (xy 4.645 -2.137)
      (xy 4.674 -2.155)
      (xy 4.702 -2.174)
      (xy 4.729 -2.195)
      (xy 4.755 -2.217)
      (xy 4.78 -2.24)
      (xy 4.803 -2.265)
      (xy 4.825 -2.291)
      (xy 4.846 -2.318)
      (xy 4.865 -2.346)
      (xy 4.883 -2.375)
      (xy 4.899 -2.405)
      (xy 4.914 -2.436)
      (xy 4.927 -2.467)
      (xy 4.938 -2.499)
      (xy 4.948 -2.532)
      (xy 4.956 -2.565)
      (xy 4.962 -2.598)
      (xy 4.966 -2.632)
      (xy 4.969 -2.666)
      (xy 4.97 -2.7)
      (xy 4.97 -3.3)
      (xy 4.969 -3.334)
      (xy 4.966 -3.368)
      (xy 4.962 -3.402)
      (xy 4.956 -3.435)
      (xy 4.948 -3.468)
      (xy 4.938 -3.501)
      (xy 4.927 -3.533)
      (xy 4.914 -3.564)
      (xy 4.899 -3.595)
      (xy 4.883 -3.625)
      (xy 4.865 -3.654)
      (xy 4.846 -3.682)
      (xy 4.825 -3.709)
      (xy 4.803 -3.735)
      (xy 4.78 -3.76)
      (xy 4.755 -3.783)
      (xy 4.729 -3.805)
      (xy 4.702 -3.826)
      (xy 4.674 -3.845)
      (xy 4.645 -3.863)
      (xy 4.615 -3.879)
      (xy 4.584 -3.894)
      (xy 4.553 -3.907)
      (xy 4.521 -3.918)
      (xy 4.488 -3.928)
      (xy 4.455 -3.936)
      (xy 4.422 -3.942)
      (xy 4.388 -3.946)
      (xy 4.354 -3.949)
      (xy 4.32 -3.95)
    ) (layer F.Mask) (width 0.01)
  )
)